<?xml version="1.0" encoding="UTF-8" standalone="no"?>
<!-- Created with Inkscape (http://www.inkscape.org/) -->

<svg
   xmlns:dc="http://purl.org/dc/elements/1.1/"
   xmlns:cc="http://creativecommons.org/ns#"
   xmlns:rdf="http://www.w3.org/1999/02/22-rdf-syntax-ns#"
   xmlns:svg="http://www.w3.org/2000/svg"
   xmlns="http://www.w3.org/2000/svg"
   xmlns:sodipodi="http://sodipodi.sourceforge.net/DTD/sodipodi-0.dtd"
   xmlns:inkscape="http://www.inkscape.org/namespaces/inkscape"
   id="svg2487"
   version="1.1"
   viewBox="0 0 210 297"
   height="297mm"
   width="210mm"
   inkscape:version="0.92.4 (unknown)"
   sodipodi:docname="chain-links.svg">
  <defs
     id="defs2481">
    <inkscape:path-effect
       only_selected="false"
       apply_with_weight="true"
       apply_no_weight="true"
       helper_size="0"
       steps="2"
       weight="33.333333"
       is_visible="true"
       id="path-effect4382"
       effect="bspline" />
    <inkscape:path-effect
       effect="bspline"
       id="path-effect4378"
       is_visible="true"
       weight="33.333333"
       steps="2"
       helper_size="0"
       apply_no_weight="true"
       apply_with_weight="true"
       only_selected="false" />
    <inkscape:path-effect
       effect="bspline"
       id="path-effect4374"
       is_visible="true"
       weight="33.333333"
       steps="2"
       helper_size="0"
       apply_no_weight="true"
       apply_with_weight="true"
       only_selected="false" />
  </defs>
  <sodipodi:namedview
     id="base"
     pagecolor="#ffffff"
     bordercolor="#666666"
     borderopacity="1.0"
     inkscape:pageopacity="0.0"
     inkscape:pageshadow="2"
     inkscape:zoom="0.66279461"
     inkscape:cx="396.85039"
     inkscape:cy="561.25984"
     inkscape:document-units="mm"
     inkscape:current-layer="layer1"
     showgrid="false"
     showguides="true"
     inkscape:guide-bbox="true"
     inkscape:window-width="1920"
     inkscape:window-height="986"
     inkscape:window-x="0"
     inkscape:window-y="33"
     inkscape:window-maximized="1" />
  <metadata
     id="metadata2484">
    <rdf:RDF>
      <cc:Work
         rdf:about="">
        <dc:format>image/svg+xml</dc:format>
        <dc:type
           rdf:resource="http://purl.org/dc/dcmitype/StillImage" />
        <dc:title></dc:title>
      </cc:Work>
    </rdf:RDF>
  </metadata>
  <g
     inkscape:label="Layer 1"
     inkscape:groupmode="layer"
     id="layer1">
    <g
       id="g3494"
       transform="matrix(1.000000,0.000000,0.000000,1.000000,0.000000,0.000000)"
       inkscape:label="Voronoi" />
    <g
       id="g4422"
       transform="translate(51.096774,-55.487903)">
      <g
         id="g4368">
        <path
           style="fill:none;stroke:#000000;stroke-width:0.26458332px;stroke-linecap:butt;stroke-linejoin:miter;stroke-opacity:1"
           d="M 61.695573,78.111941 H 101.4804"
           id="path3051"
           inkscape:connector-curvature="0" />
        <path
           inkscape:connector-curvature="0"
           id="path3055"
           d="M 61.461172,87.393732 H 101.96672"
           style="fill:none;stroke:#000000;stroke-width:0.26458332px;stroke-linecap:butt;stroke-linejoin:miter;stroke-opacity:1"
           sodipodi:nodetypes="cc" />
        <path
           style="fill:none;stroke:#000000;stroke-width:0.26458332px;stroke-linecap:butt;stroke-linejoin:miter;stroke-opacity:1"
           d="M 61.703288,114.22451 H 101.48812"
           id="path3057"
           inkscape:connector-curvature="0" />
        <path
           transform="scale(-1,1)"
           style="opacity:1;fill:#ffffff;fill-opacity:1;stroke:#000000;stroke-width:0.26499999;stroke-miterlimit:4;stroke-dasharray:none;stroke-dashoffset:0;stroke-opacity:1"
           id="path3092"
           sodipodi:type="arc"
           sodipodi:cx="-101.02905"
           sodipodi:cy="100.78999"
           sodipodi:rx="22.678572"
           sodipodi:ry="22.678572"
           sodipodi:start="1.5841391"
           sodipodi:end="4.7056064"
           sodipodi:open="true"
           d="m -101.33164,123.46655 a 22.678572,22.678572 0 0 1 -22.37586,-22.75094 22.678572,22.678572 0 0 1 22.52463,-22.603667" />
        <path
           d="M 61.546806,123.46655 A 22.678572,22.678572 0 0 1 39.170942,100.71561 22.678572,22.678572 0 0 1 61.695574,78.111943"
           sodipodi:open="true"
           sodipodi:end="4.7056064"
           sodipodi:start="1.5841391"
           sodipodi:ry="22.678572"
           sodipodi:rx="22.678572"
           sodipodi:cy="100.78999"
           sodipodi:cx="61.849392"
           sodipodi:type="arc"
           id="path3094"
           style="opacity:1;fill:#ffffff;fill-opacity:1;stroke:#000000;stroke-width:0.26499999;stroke-miterlimit:4;stroke-dasharray:none;stroke-dashoffset:0;stroke-opacity:1" />
        <path
           style="opacity:1;fill:#ffffff;fill-opacity:1;stroke:#000000;stroke-width:0.26499999;stroke-miterlimit:4;stroke-dasharray:none;stroke-dashoffset:0;stroke-opacity:1"
           id="path3096"
           sodipodi:type="arc"
           sodipodi:cx="61.806049"
           sodipodi:cy="100.79043"
           sodipodi:rx="13.403657"
           sodipodi:ry="13.403657"
           sodipodi:start="1.5719763"
           sodipodi:end="4.6979676"
           sodipodi:open="true"
           d="M 61.790233,114.19408 A 13.403657,13.403657 0 0 1 48.402686,100.87917 13.403657,13.403657 0 0 1 61.612757,87.388165" />
        <path
           style="fill:none;stroke:#000000;stroke-width:0.26458332px;stroke-linecap:butt;stroke-linejoin:miter;stroke-opacity:1"
           d="M 61.546806,123.46654 H 101.33164"
           id="path3106"
           inkscape:connector-curvature="0" />
        <path
           transform="scale(-1,1)"
           d="m -101.26393,114.2229 a 13.403657,13.403657 0 0 1 -11.79059,-6.6559 13.403657,13.403657 0 0 1 0.0276,-13.539505 13.403657,13.403657 0 0 1 11.81767,-6.607708"
           sodipodi:open="true"
           sodipodi:end="4.7320185"
           sodipodi:start="1.5552492"
           sodipodi:ry="13.403657"
           sodipodi:rx="13.403657"
           sodipodi:cy="100.82086"
           sodipodi:cx="-101.47231"
           sodipodi:type="arc"
           id="path3108"
           style="opacity:1;fill:#ffffff;fill-opacity:1;stroke:#000000;stroke-width:0.26499999;stroke-miterlimit:4;stroke-dasharray:none;stroke-dashoffset:0;stroke-opacity:1" />
      </g>
      <g
         transform="translate(-43.770509,48.009449)"
         id="g4302">
        <rect
           style="opacity:1;fill:#ffffff;fill-opacity:1;stroke:#000000;stroke-width:0.26499999;stroke-miterlimit:4;stroke-dasharray:0, 2.915;stroke-dashoffset:0;stroke-opacity:1"
           id="rect4291"
           width="75.369606"
           height="9.1670198"
           x="22.075089"
           y="48.862221" />
        <path
           inkscape:connector-curvature="0"
           id="path3110"
           d="m 22.075089,58.029244 a 4.5835085,4.5835085 0 0 1 -3.969435,-2.29176 4.5835085,4.5835085 0 0 1 0,-4.58351 4.5835085,4.5835085 0 0 1 3.969434,-2.29175"
           style="opacity:1;fill:#ffffff;fill-opacity:1;stroke:#000000;stroke-width:0.26499999;stroke-miterlimit:4;stroke-dasharray:none;stroke-dashoffset:0;stroke-opacity:1" />
        <path
           sodipodi:nodetypes="cc"
           inkscape:connector-curvature="0"
           id="path3112"
           d="m 22.043575,48.864424 h 75.68842"
           style="fill:#ff2bff;fill-opacity:1;stroke:#000000;stroke-width:0.26458332px;stroke-linecap:butt;stroke-linejoin:miter;stroke-opacity:1" />
        <path
           inkscape:connector-curvature="0"
           id="path3114"
           d="m 97.444695,58.029244 a 4.5835085,4.5835085 0 0 0 3.969445,-2.29176 4.5835085,4.5835085 0 0 0 0,-4.58351 4.5835085,4.5835085 0 0 0 -3.969445,-2.29175"
           style="opacity:1;fill:#ffffff;fill-opacity:1;stroke:#000000;stroke-width:0.26499999;stroke-miterlimit:4;stroke-dasharray:none;stroke-dashoffset:0;stroke-opacity:1" />
        <path
           style="fill:#ff2bff;fill-opacity:1;stroke:#000000;stroke-width:0.26458332px;stroke-linecap:butt;stroke-linejoin:miter;stroke-opacity:1"
           d="M 22.07509,58.029244 H 97.444695"
           id="path3116"
           inkscape:connector-curvature="0" />
      </g>
      <path
         sodipodi:nodetypes="cscccc"
         inkscape:connector-curvature="0"
         id="path4370"
         d="m -24.422899,102.40463 c 2.574043,3.07146 5.705847,2.57835 6.173088,2.67038 0.455299,0.0897 66.349081,-0.1927 66.349081,-0.1927 l -67.57006,-1.23965 c -1.896267,-0.22842 -2.701151,-1.35057 -2.701151,-1.35057 z"
         style="fill:#000000;fill-opacity:1;stroke:#000000;stroke-width:0.26458332px;stroke-linecap:butt;stroke-linejoin:miter;stroke-opacity:1" />
      <path
         transform="translate(2.1692842,-0.34251856)"
         inkscape:original-d="m 49.551018,106.33133 c -3.120459,-0.0764 -6.241185,-0.1525 -9.362173,-0.22835 0.685358,1.1035 1.370338,2.20708 2.055112,3.31101 0.799525,-0.57117 1.598683,-1.14199 2.397627,-1.71259 1.636128,-0.45679 3.273221,-0.91365 4.909434,-1.37007 z"
         inkscape:path-effect="#path-effect4374"
         inkscape:connector-curvature="0"
         id="path4372"
         d="m 47.172704,106.52158 c -0.742152,-0.26636 -3.862878,-0.34248 -5.080843,0.17131 -1.217966,0.51378 -0.532985,1.61736 0.209337,1.88367 0.742322,0.26631 1.541477,-0.30451 2.759021,-0.81814 1.217544,-0.51363 2.854637,-0.97049 2.112485,-1.23684 z"
         style="fill:#4d4d4d;stroke:#afafaf;stroke-width:0.26458332px;stroke-linecap:butt;stroke-linejoin:miter;stroke-opacity:0.55663428" />
      <path
         sodipodi:nodetypes="cccccc"
         inkscape:original-d="m 126.27518,121.85883 c -21.57586,0.53564 -43.151988,1.07154 -64.728375,1.60771 -3.998408,-1.03094 -7.996785,-2.06153 -11.995788,-3.09195 3.083041,-0.57115 6.165603,-1.142 9.248001,-1.71259 -1.560095,1.33174 -3.12046,2.66376 -4.681087,3.99604 24.052676,-0.26667 48.105099,-0.53307 72.157249,-0.79921 z"
         inkscape:path-effect="#path-effect4378"
         inkscape:connector-curvature="0"
         id="path4376"
         d="m 103.46118,122.25998 c 1.23815,0.13475 -20.337982,0.67065 -33.125423,0.42329 -12.787442,-0.24735 -16.785818,-1.27795 -17.243739,-2.07878 -0.457921,-0.80084 2.624642,-1.37168 3.385785,-0.9912 0.761142,0.38048 -0.799225,1.71249 10.446791,2.24542 11.246016,0.53292 35.298436,0.26652 36.536586,0.40127 z"
         style="fill:#000000;fill-opacity:1;stroke:#000000;stroke-width:0.26458332px;stroke-linecap:butt;stroke-linejoin:miter;stroke-opacity:1" />
      <path
         transform="rotate(-180,83.407999,103.99223)"
         style="fill:#000000;fill-opacity:1;stroke:#000000;stroke-width:0.26458332px;stroke-linecap:butt;stroke-linejoin:miter;stroke-opacity:1"
         d="m 104.12719,122.35512 c 0.53408,0.22989 -21.080108,0.95608 -33.353902,0.48032 -12.273794,-0.47576 -15.206335,-2.15314 -15.664442,-2.95397 -0.458107,-0.80084 1.558625,-0.72474 2.491175,-0.11564 0.93255,0.60909 0.780319,1.75082 12.045522,2.18831 11.265204,0.43749 33.947557,0.17109 34.481647,0.40098 z"
         id="path4380"
         inkscape:connector-curvature="0"
         inkscape:path-effect="#path-effect4382"
         inkscape:original-d="m 126.27518,121.85883 c -21.6139,0.72644 -43.228089,1.45263 -64.842548,2.17857 -2.933321,-1.6774 -5.86586,-3.35478 -8.798948,-5.03289 2.017044,0.0764 4.033776,0.1525 6.051162,0.22835 -0.152501,1.14203 -0.304731,2.28376 -0.456692,3.42518 22.68259,-0.26667 45.364946,-0.53307 68.047026,-0.79921 z"
         sodipodi:nodetypes="cccccc" />
    </g>
  </g>
</svg>
