<?xml version="1.0" encoding="UTF-8" standalone="no"?>
<svg
   xmlns:dc="http://purl.org/dc/elements/1.1/"
   xmlns:cc="http://creativecommons.org/ns#"
   xmlns:rdf="http://www.w3.org/1999/02/22-rdf-syntax-ns#"
   xmlns:svg="http://www.w3.org/2000/svg"
   xmlns="http://www.w3.org/2000/svg"
   xmlns:sodipodi="http://sodipodi.sourceforge.net/DTD/sodipodi-0.dtd"
   xmlns:inkscape="http://www.inkscape.org/namespaces/inkscape"
   width="210mm"
   height="297mm"
   viewBox="0 0 210 297"
   version="1.1"
   id="svg8"
   inkscape:version="1.0 (4035a4fb49, 2020-05-01)"
   sodipodi:docname="trie_example.svg">
  <defs
     id="defs2">
    <marker
       inkscape:isstock="true"
       style="overflow:visible;"
       id="marker1322"
       refX="0.0"
       refY="0.0"
       orient="auto"
       inkscape:stockid="Arrow1Lend">
      <path
         transform="scale(0.8) rotate(180) translate(12.5,0)"
         style="fill-rule:evenodd;stroke:#000000;stroke-width:1pt;stroke-opacity:1;fill:#000000;fill-opacity:1"
         d="M 0.0,0.0 L 5.0,-5.0 L -12.5,0.0 L 5.0,5.0 L 0.0,0.0 z "
         id="path1320" />
    </marker>
  </defs>
  <sodipodi:namedview
     inkscape:window-maximized="1"
     inkscape:window-y="27"
     inkscape:window-x="0"
     inkscape:window-height="1149"
     inkscape:window-width="1600"
     showgrid="false"
     inkscape:document-rotation="0"
     inkscape:current-layer="layer1"
     inkscape:document-units="mm"
     inkscape:cy="189.86703"
     inkscape:cx="398.12884"
     inkscape:zoom="1.2941826"
     inkscape:pageshadow="2"
     inkscape:pageopacity="0.0"
     borderopacity="1.0"
     bordercolor="#666666"
     pagecolor="#ffffff"
     id="base" />
  <metadata
     id="metadata5">
    <rdf:RDF>
      <cc:Work
         rdf:about="">
        <dc:format>image/svg+xml</dc:format>
        <dc:type
           rdf:resource="http://purl.org/dc/dcmitype/StillImage" />
        <dc:title />
      </cc:Work>
    </rdf:RDF>
  </metadata>
  <g
     id="layer1"
     inkscape:label="Layer 1"
     inkscape:groupmode="layer"
     style="display:inline">
    <rect
       style="fill:#ffffff;stroke:#000000;stroke-width:0.264999"
       id="rect3313"
       width="48.400635"
       height="10.874864"
       x="21.85873"
       y="50.598396" />
    <rect
       style="display:inline;fill:#ffffff;stroke:#000000;stroke-width:0.280637"
       id="rect3315"
       width="11.591272"
       height="10.88425"
       x="58.660282"
       y="50.606216" />
    <rect
       y="50.606216"
       x="47.069012"
       height="10.88425"
       width="11.591272"
       id="rect3317"
       style="fill:#ffffff;stroke:#000000;stroke-width:0.280637" />
    <g
       id="g3330"
       transform="translate(-68.285319,65.297982)">
      <rect
         style="fill:#ffffff;stroke:#000000;stroke-width:0.264999"
         id="rect3324"
         width="48.400635"
         height="10.874864"
         x="70.820282"
         y="16.733524" />
      <rect
         style="fill:#ffffff;stroke:#000000;stroke-width:0.280637"
         id="rect3326"
         width="11.591272"
         height="10.88425"
         x="107.62183"
         y="16.741343" />
      <rect
         y="16.741343"
         x="96.030563"
         height="10.88425"
         width="11.591272"
         id="rect3328"
         style="fill:#ffffff;stroke:#000000;stroke-width:0.280637" />
    </g>
    <path
       style="fill:none;fill-rule:evenodd;stroke:#000000;stroke-width:0.264583px;stroke-linecap:butt;stroke-linejoin:miter;stroke-opacity:1"
       d="M 52.864648,61.630785 39.336515,82.039325"
       id="path3339" />
    <path
       id="path3341"
       d="m 64.455918,61.630784 13.52813,20.40854"
       style="fill:none;fill-rule:evenodd;stroke:#000000;stroke-width:0.264583px;stroke-linecap:butt;stroke-linejoin:miter;stroke-opacity:1" />
    <g
       transform="translate(-18.046515,65.297981)"
       id="g3349">
      <rect
         y="16.733524"
         x="70.820282"
         height="10.874864"
         width="48.400635"
         id="rect3343"
         style="fill:#ffffff;stroke:#000000;stroke-width:0.264999" />
      <rect
         y="16.741343"
         x="107.62183"
         height="10.88425"
         width="11.591272"
         id="rect3345"
         style="fill:#ffffff;stroke:#000000;stroke-width:0.280637" />
      <rect
         style="fill:#ffffff;stroke:#000000;stroke-width:0.280637"
         id="rect3347"
         width="11.591272"
         height="10.88425"
         x="96.030563"
         y="16.741343" />
    </g>
    <rect
       y="50.56485"
       x="128.82587"
       height="10.874864"
       width="48.400635"
       id="rect3366"
       style="fill:#ffffff;stroke:#000000;stroke-width:0.264999" />
    <rect
       y="50.572666"
       x="165.62743"
       height="10.88425"
       width="11.591272"
       id="rect3368"
       style="fill:#ffffff;stroke:#000000;stroke-width:0.280637" />
    <rect
       style="fill:#ffffff;stroke:#000000;stroke-width:0.280637"
       id="rect3370"
       width="11.591272"
       height="10.88425"
       x="154.03615"
       y="50.572666" />
    <g
       transform="translate(38.681821,65.264433)"
       id="g3378">
      <rect
         y="16.733524"
         x="70.820282"
         height="10.874864"
         width="48.400635"
         id="rect3372"
         style="fill:#ffffff;stroke:#000000;stroke-width:0.264999" />
      <rect
         y="16.741343"
         x="107.62183"
         height="10.88425"
         width="11.591272"
         id="rect3374"
         style="fill:#ffffff;stroke:#000000;stroke-width:0.280637" />
      <rect
         style="fill:#ffffff;stroke:#000000;stroke-width:0.280637"
         id="rect3376"
         width="11.591272"
         height="10.88425"
         x="96.030563"
         y="16.741343" />
    </g>
    <path
       id="path3380"
       d="m 159.83179,61.597236 -13.52814,20.40854"
       style="fill:none;fill-rule:evenodd;stroke:#000000;stroke-width:0.264583px;stroke-linecap:butt;stroke-linejoin:miter;stroke-opacity:1" />
    <path
       style="fill:none;fill-rule:evenodd;stroke:#000000;stroke-width:0.264583px;stroke-linecap:butt;stroke-linejoin:miter;stroke-opacity:1"
       d="m 171.42306,61.597235 13.52813,20.40854"
       id="path3382" />
    <g
       id="g3390"
       transform="translate(88.920625,65.264432)">
      <rect
         style="fill:#ffffff;stroke:#000000;stroke-width:0.264999"
         id="rect3384"
         width="48.400635"
         height="10.874864"
         x="70.820282"
         y="16.733524" />
      <rect
         style="fill:#ffffff;stroke:#000000;stroke-width:0.280637"
         id="rect3386"
         width="11.591272"
         height="10.88425"
         x="107.62183"
         y="16.741343" />
      <rect
         y="16.741343"
         x="96.030563"
         height="10.88425"
         width="11.591272"
         id="rect3388"
         style="fill:#ffffff;stroke:#000000;stroke-width:0.280637" />
    </g>
    <rect
       y="7.5399089"
       x="75.433327"
       height="10.874864"
       width="48.400635"
       id="rect3420"
       style="fill:#ffffff;stroke:#000000;stroke-width:0.264999" />
    <rect
       y="7.5477271"
       x="112.23488"
       height="10.88425"
       width="11.591272"
       id="rect3422"
       style="fill:#ffffff;stroke:#000000;stroke-width:0.280637" />
    <rect
       style="fill:#ffffff;stroke:#000000;stroke-width:0.280637"
       id="rect3424"
       width="11.591272"
       height="10.88425"
       x="100.64361"
       y="7.5477271" />
    <path
       style="fill:none;fill-rule:evenodd;stroke:#000000;stroke-width:0.264583px;stroke-linecap:butt;stroke-linejoin:miter;stroke-opacity:1"
       d="M 106.43924,18.572295 58.660282,50.606216"
       id="path3431"
       sodipodi:nodetypes="cc" />
    <path
       id="path3433"
       d="m 118.03051,18.572295 36.00564,32.000371"
       style="fill:none;fill-rule:evenodd;stroke:#000000;stroke-width:0.264583px;stroke-linecap:butt;stroke-linejoin:miter;stroke-opacity:1"
       sodipodi:nodetypes="cc" />
    <text
       xml:space="preserve"
       style="font-style:normal;font-variant:normal;font-weight:normal;font-stretch:normal;font-size:4.23333px;line-height:125%;font-family:Sans;-inkscape-font-specification:'Sans, Normal';font-variant-ligatures:normal;font-variant-caps:normal;font-variant-numeric:normal;font-variant-east-asian:normal;letter-spacing:0px;word-spacing:0px;fill:#000000;fill-opacity:1;stroke:none;stroke-width:0.264583px;stroke-linecap:butt;stroke-linejoin:miter;stroke-opacity:1"
       x="82.698807"
       y="14.490427"
       id="text3437"><tspan
         sodipodi:role="line"
         id="tspan3435"
         x="82.698807"
         y="14.490427"
         style="font-style:normal;font-variant:normal;font-weight:normal;font-stretch:normal;font-size:4.23333px;font-family:Sans;-inkscape-font-specification:'Sans, Normal';font-variant-ligatures:normal;font-variant-caps:normal;font-variant-numeric:normal;font-variant-east-asian:normal;stroke-width:0.264583px">None</tspan></text>
    <text
       id="text3441"
       y="58.160107"
       x="135.4451"
       style="font-style:normal;font-variant:normal;font-weight:normal;font-stretch:normal;font-size:4.23333px;line-height:125%;font-family:Sans;-inkscape-font-specification:'Sans, Normal';font-variant-ligatures:normal;font-variant-caps:normal;font-variant-numeric:normal;font-variant-east-asian:normal;letter-spacing:0px;word-spacing:0px;fill:#000000;fill-opacity:1;stroke:none;stroke-width:0.264583px;stroke-linecap:butt;stroke-linejoin:miter;stroke-opacity:1"
       xml:space="preserve"
       inkscape:transform-center-x="56.786518"
       inkscape:transform-center-y="-43.215888"><tspan
         style="font-style:normal;font-variant:normal;font-weight:normal;font-stretch:normal;font-size:4.23333px;font-family:Sans;-inkscape-font-specification:'Sans, Normal';font-variant-ligatures:normal;font-variant-caps:normal;font-variant-numeric:normal;font-variant-east-asian:normal;stroke-width:0.264583px"
         y="58.160107"
         x="135.4451"
         id="tspan3439"
         sodipodi:role="line">None</tspan></text>
    <text
       inkscape:transform-center-y="-43.215888"
       inkscape:transform-center-x="56.786518"
       xml:space="preserve"
       style="font-style:normal;font-variant:normal;font-weight:normal;font-stretch:normal;font-size:4.23333px;line-height:125%;font-family:Sans;-inkscape-font-specification:'Sans, Normal';font-variant-ligatures:normal;font-variant-caps:normal;font-variant-numeric:normal;font-variant-east-asian:normal;letter-spacing:0px;word-spacing:0px;fill:#000000;fill-opacity:1;stroke:none;stroke-width:0.264583px;stroke-linecap:butt;stroke-linejoin:miter;stroke-opacity:1"
       x="54.016457"
       y="89.60714"
       id="text3445"><tspan
         sodipodi:role="line"
         id="tspan3479"
         x="54.016457"
         y="89.60714">Some(true)</tspan></text>
    <text
       id="text3457"
       y="89.399971"
       x="160.66351"
       style="font-style:normal;font-variant:normal;font-weight:normal;font-stretch:normal;font-size:4.23333px;line-height:125%;font-family:Sans;-inkscape-font-specification:'Sans, Normal';font-variant-ligatures:normal;font-variant-caps:normal;font-variant-numeric:normal;font-variant-east-asian:normal;letter-spacing:0px;word-spacing:0px;fill:#000000;fill-opacity:1;stroke:none;stroke-width:0.264583px;stroke-linecap:butt;stroke-linejoin:miter;stroke-opacity:1"
       xml:space="preserve"
       inkscape:transform-center-x="103.83576"
       inkscape:transform-center-y="-16.078026"><tspan
         sodipodi:role="line"
         id="tspan3481"
         x="160.66351"
         y="89.399971">Some(true)</tspan></text>
    <text
       id="text3461"
       y="14.490427"
       x="82.698807"
       style="font-style:normal;font-variant:normal;font-weight:normal;font-stretch:normal;font-size:4.23333px;line-height:125%;font-family:Sans;-inkscape-font-specification:'Sans, Normal';font-variant-ligatures:normal;font-variant-caps:normal;font-variant-numeric:normal;font-variant-east-asian:normal;letter-spacing:0px;word-spacing:0px;fill:#000000;fill-opacity:1;stroke:none;stroke-width:0.264583px;stroke-linecap:butt;stroke-linejoin:miter;stroke-opacity:1"
       xml:space="preserve"><tspan
         style="font-style:normal;font-variant:normal;font-weight:normal;font-stretch:normal;font-size:4.23333px;font-family:Sans;-inkscape-font-specification:'Sans, Normal';font-variant-ligatures:normal;font-variant-caps:normal;font-variant-numeric:normal;font-variant-east-asian:normal;stroke-width:0.264583px"
         y="14.490427"
         x="82.698807"
         id="tspan3459"
         sodipodi:role="line">None</tspan></text>
    <text
       xml:space="preserve"
       style="font-style:normal;font-variant:normal;font-weight:normal;font-stretch:normal;font-size:4.23333px;line-height:125%;font-family:Sans;-inkscape-font-specification:'Sans, Normal';font-variant-ligatures:normal;font-variant-caps:normal;font-variant-numeric:normal;font-variant-east-asian:normal;letter-spacing:0px;word-spacing:0px;fill:#000000;fill-opacity:1;stroke:none;stroke-width:0.264583px;stroke-linecap:butt;stroke-linejoin:miter;stroke-opacity:1"
       x="22.545353"
       y="58.452087"
       id="text3465"><tspan
         sodipodi:role="line"
         id="tspan3475"
         x="22.545353"
         y="58.452087">Some(true)</tspan></text>
    <text
       id="text3469"
       y="88.368752"
       x="6.2959342"
       style="font-style:normal;font-variant:normal;font-weight:normal;font-stretch:normal;font-size:4.23333px;line-height:125%;font-family:Sans;-inkscape-font-specification:'Sans, Normal';font-variant-ligatures:normal;font-variant-caps:normal;font-variant-numeric:normal;font-variant-east-asian:normal;letter-spacing:0px;word-spacing:0px;fill:#000000;fill-opacity:1;stroke:none;stroke-width:0.264583px;stroke-linecap:butt;stroke-linejoin:miter;stroke-opacity:1"
       xml:space="preserve"><tspan
         style="font-style:normal;font-variant:normal;font-weight:normal;font-stretch:normal;font-size:4.23333px;font-family:Sans;-inkscape-font-specification:'Sans, Normal';font-variant-ligatures:normal;font-variant-caps:normal;font-variant-numeric:normal;font-variant-east-asian:normal;stroke-width:0.264583px"
         y="88.368752"
         x="6.2959342"
         id="tspan3467"
         sodipodi:role="line">None</tspan></text>
    <text
       xml:space="preserve"
       style="font-style:normal;font-variant:normal;font-weight:normal;font-stretch:normal;font-size:4.23333px;line-height:125%;font-family:Sans;-inkscape-font-specification:'Sans, Normal';font-variant-ligatures:normal;font-variant-caps:normal;font-variant-numeric:normal;font-variant-east-asian:normal;letter-spacing:0px;word-spacing:0px;fill:#000000;fill-opacity:1;stroke:none;stroke-width:0.264583px;stroke-linecap:butt;stroke-linejoin:miter;stroke-opacity:1"
       x="110.2598"
       y="89.14727"
       id="text3473"><tspan
         sodipodi:role="line"
         id="tspan3477"
         x="110.2598"
         y="89.14727">Some(true)</tspan></text>
    <text
       id="text3507"
       y="36.834232"
       x="84.208282"
       style="font-style:normal;font-variant:normal;font-weight:normal;font-stretch:normal;font-size:4.23333px;line-height:125%;font-family:Sans;-inkscape-font-specification:'Sans, Normal';font-variant-ligatures:normal;font-variant-caps:normal;font-variant-numeric:normal;font-variant-east-asian:normal;letter-spacing:0px;word-spacing:0px;fill:#000000;fill-opacity:1;stroke:none;stroke-width:0.264583px;stroke-linecap:butt;stroke-linejoin:miter;stroke-opacity:1"
       xml:space="preserve"><tspan
         sodipodi:role="line"
         id="tspan3509"
         x="84.208282"
         y="36.834232">0</tspan></text>
    <text
       xml:space="preserve"
       style="font-style:normal;font-variant:normal;font-weight:normal;font-stretch:normal;font-size:4.23333px;line-height:125%;font-family:Sans;-inkscape-font-specification:'Sans, Normal';font-variant-ligatures:normal;font-variant-caps:normal;font-variant-numeric:normal;font-variant-east-asian:normal;letter-spacing:0px;word-spacing:0px;fill:#000000;fill-opacity:1;stroke:none;stroke-width:0.264583px;stroke-linecap:butt;stroke-linejoin:miter;stroke-opacity:1"
       x="140.48534"
       y="36.834232"
       id="text3513"><tspan
         sodipodi:role="line"
         id="tspan3515"
         x="140.48534"
         y="36.834232">1</tspan></text>
    <text
       id="text891"
       y="5.4887962"
       x="80.217552"
       style="font-style:normal;font-variant:normal;font-weight:normal;font-stretch:normal;font-size:4.23333px;line-height:125%;font-family:Sans;-inkscape-font-specification:'Sans, Normal';font-variant-ligatures:normal;font-variant-caps:normal;font-variant-numeric:normal;font-variant-east-asian:normal;letter-spacing:0px;word-spacing:0px;fill:#1027a8;fill-opacity:1;stroke:none;stroke-width:0.264583px;stroke-linecap:butt;stroke-linejoin:miter;stroke-opacity:1;"
       xml:space="preserve"><tspan
         y="5.4887962"
         x="80.217552"
         id="tspan889"
         sodipodi:role="line">1</tspan></text>
    <text
       xml:space="preserve"
       style="font-style:normal;font-variant:normal;font-weight:normal;font-stretch:normal;font-size:4.23333px;line-height:125%;font-family:Sans;-inkscape-font-specification:'Sans, Normal';font-variant-ligatures:normal;font-variant-caps:normal;font-variant-numeric:normal;font-variant-east-asian:normal;letter-spacing:0px;word-spacing:0px;fill:#1027a8;fill-opacity:1;stroke:none;stroke-width:0.264583px;stroke-linecap:butt;stroke-linejoin:miter;stroke-opacity:1;"
       x="29.942429"
       y="48.566353"
       id="text895"><tspan
         id="tspan897"
         sodipodi:role="line">2</tspan></text>
    <text
       id="text901"
       y="49.200077"
       x="136.56996"
       style="font-style:normal;font-variant:normal;font-weight:normal;font-stretch:normal;font-size:4.23333px;line-height:125%;font-family:Sans;-inkscape-font-specification:'Sans, Normal';font-variant-ligatures:normal;font-variant-caps:normal;font-variant-numeric:normal;font-variant-east-asian:normal;letter-spacing:0px;word-spacing:0px;fill:#1027a8;fill-opacity:1;stroke:none;stroke-width:0.264583px;stroke-linecap:butt;stroke-linejoin:miter;stroke-opacity:1;"
       xml:space="preserve"><tspan
         id="tspan903"
         sodipodi:role="line">3</tspan></text>
    <text
       xml:space="preserve"
       style="font-style:normal;font-variant:normal;font-weight:normal;font-stretch:normal;font-size:4.23333px;line-height:125%;font-family:Sans;-inkscape-font-specification:'Sans, Normal';font-variant-ligatures:normal;font-variant-caps:normal;font-variant-numeric:normal;font-variant-east-asian:normal;letter-spacing:0px;word-spacing:0px;fill:#1027a8;fill-opacity:1;stroke:none;stroke-width:0.264583px;stroke-linecap:butt;stroke-linejoin:miter;stroke-opacity:1;"
       x="10.151306"
       y="80.435013"
       id="text907"><tspan
         id="tspan909"
         sodipodi:role="line">4</tspan></text>
    <text
       inkscape:transform-center-y="0.74823425"
       inkscape:transform-center-x="49.938603"
       id="text913"
       y="80.325607"
       x="56.81879"
       style="font-style:normal;font-variant:normal;font-weight:normal;font-stretch:normal;font-size:4.23333px;line-height:125%;font-family:Sans;-inkscape-font-specification:'Sans, Normal';font-variant-ligatures:normal;font-variant-caps:normal;font-variant-numeric:normal;font-variant-east-asian:normal;letter-spacing:0px;word-spacing:0px;fill:#1027a8;fill-opacity:1;stroke:none;stroke-width:0.264583px;stroke-linecap:butt;stroke-linejoin:miter;stroke-opacity:1;"
       xml:space="preserve"><tspan
         id="tspan915"
         sodipodi:role="line">5</tspan></text>
    <text
       xml:space="preserve"
       style="font-style:normal;font-variant:normal;font-weight:normal;font-stretch:normal;font-size:4.23333px;line-height:125%;font-family:Sans;-inkscape-font-specification:'Sans, Normal';font-variant-ligatures:normal;font-variant-caps:normal;font-variant-numeric:normal;font-variant-east-asian:normal;letter-spacing:0px;word-spacing:0px;fill:#1027a8;fill-opacity:1;stroke:none;stroke-width:0.264583px;stroke-linecap:butt;stroke-linejoin:miter;stroke-opacity:1;"
       x="118.91025"
       y="81.048485"
       id="text919"
       inkscape:transform-center-x="49.938603"
       inkscape:transform-center-y="0.74823425"><tspan
         id="tspan921"
         sodipodi:role="line">6</tspan></text>
    <text
       inkscape:transform-center-y="0.74823425"
       inkscape:transform-center-x="49.938603"
       id="text925"
       y="80.675064"
       x="166.12115"
       style="font-style:normal;font-variant:normal;font-weight:normal;font-stretch:normal;font-size:4.23333px;line-height:125%;font-family:Sans;-inkscape-font-specification:'Sans, Normal';font-variant-ligatures:normal;font-variant-caps:normal;font-variant-numeric:normal;font-variant-east-asian:normal;letter-spacing:0px;word-spacing:0px;fill:#1027a8;fill-opacity:1;stroke:none;stroke-width:0.264583px;stroke-linecap:butt;stroke-linejoin:miter;stroke-opacity:1;"
       xml:space="preserve"><tspan
         id="tspan927"
         sodipodi:role="line">7</tspan></text>
  </g>
</svg>
