<?xml version="1.0" encoding="UTF-8" standalone="no"?>
<svg
   xmlns:dc="http://purl.org/dc/elements/1.1/"
   xmlns:cc="http://creativecommons.org/ns#"
   xmlns:rdf="http://www.w3.org/1999/02/22-rdf-syntax-ns#"
   xmlns:svg="http://www.w3.org/2000/svg"
   xmlns="http://www.w3.org/2000/svg"
   xmlns:sodipodi="http://sodipodi.sourceforge.net/DTD/sodipodi-0.dtd"
   xmlns:inkscape="http://www.inkscape.org/namespaces/inkscape"
   sodipodi:docname="puzzle_9_pieces.svg"
   inkscape:version="0.92.4 (unknown)"
   id="svg991"
   version="1.1"
   viewBox="0 0 210 297"
   height="297mm"
   width="210mm">
  <defs
     id="defs985" />
  <sodipodi:namedview
     inkscape:window-maximized="1"
     inkscape:window-y="33"
     inkscape:window-x="0"
     inkscape:window-height="986"
     inkscape:window-width="1920"
     showgrid="false"
     inkscape:document-rotation="0"
     inkscape:current-layer="layer1"
     inkscape:document-units="mm"
     inkscape:cy="870.98714"
     inkscape:cx="411.11628"
     inkscape:zoom="2.4877714"
     inkscape:pageshadow="2"
     inkscape:pageopacity="0.0"
     borderopacity="1.0"
     bordercolor="#666666"
     pagecolor="#ffffff"
     id="base"
     inkscape:lockguides="true" />
  <metadata
     id="metadata988">
    <rdf:RDF>
      <cc:Work
         rdf:about="">
        <dc:format>image/svg+xml</dc:format>
        <dc:type
           rdf:resource="http://purl.org/dc/dcmitype/StillImage" />
        <dc:title />
      </cc:Work>
    </rdf:RDF>
  </metadata>
  <g
     id="layer1"
     inkscape:groupmode="layer"
     inkscape:label="Layer 1">
    <path
       id="path895"
       d="m 63.309154,56.1199 5.02976,0.0234 c 0,0 3.143743,0.432712 2.810291,2.417919 -0.388362,2.312119 -1.67296,4.382745 1.137024,5.214598 2.809983,0.831852 4.688042,-2.560109 3.447946,-3.87839 -1.240097,-1.318281 -1.869491,-3.802967 3.826309,-3.792067 1.7899,0.0344 4.6924,0.0126 4.6924,0.0126"
       style="fill:none;fill-rule:evenodd;stroke:#000000;stroke-width:0.45300001;stroke-linecap:butt;stroke-linejoin:miter;stroke-miterlimit:4;stroke-dasharray:none;stroke-opacity:1"
       sodipodi:nodetypes="ccszzcc"
       inkscape:connector-curvature="0" />
    <path
       sodipodi:nodetypes="ccszzcc"
       style="fill:none;fill-rule:evenodd;stroke:#000000;stroke-width:0.45300001;stroke-linecap:butt;stroke-linejoin:miter;stroke-miterlimit:4;stroke-dasharray:none;stroke-opacity:1"
       d="m 84.249114,56.12179 5.02976,0.0234 c 0,0 3.97353,0.1664 2.647349,2.716572 -1.047956,2.01516 -0.119062,4.099663 1.541508,4.365803 1.66058,0.26615 3.946597,-2.248113 2.596083,-4.294137 -1.350513,-2.046024 -1.25918,-2.837078 4.436616,-2.826178 1.7899,0.0344 4.6924,0.0126 4.6924,0.0126"
       id="path911"
       inkscape:connector-curvature="0" />
    <path
       id="path913"
       d="m 84.250994,77.06169 5.02976,-0.0234 c 0,0 3.955915,-0.612004 2.928897,-2.209812 -1.19642,-1.861358 -0.962322,-4.791222 1.503023,-4.707828 2.465344,0.08339 3.456493,1.399044 2.287648,3.839206 -1.168845,2.440162 -1.193798,3.127274 4.501998,3.116364 1.78989,-0.0344 4.69239,-0.0126 4.69239,-0.0126"
       style="fill:none;fill-rule:evenodd;stroke:#000000;stroke-width:0.45300001;stroke-linecap:butt;stroke-linejoin:miter;stroke-miterlimit:4;stroke-dasharray:none;stroke-opacity:1"
       sodipodi:nodetypes="ccszzcc"
       inkscape:connector-curvature="0" />
    <path
       id="path915"
       d="m 105.19283,56.1199 -0.0234,5.02976 c 0,0 -0.50428,3.298446 -1.70303,3.351196 -1.24262,0.0547 -4.779527,-2.804012 -5.242754,1.165186 -0.463227,3.969198 2.834864,2.849822 3.895504,2.146868 1.06064,-0.702954 3.09912,-1.13748 3.08821,4.55831 -0.0344,1.78991 -0.0126,4.69241 -0.0126,4.69241"
       style="fill:none;fill-rule:evenodd;stroke:#000000;stroke-width:0.45300001;stroke-linecap:butt;stroke-linejoin:miter;stroke-miterlimit:4;stroke-dasharray:none;stroke-opacity:1"
       sodipodi:nodetypes="ccszzcc"
       inkscape:connector-curvature="0" />
    <path
       sodipodi:nodetypes="ccszzcc"
       style="fill:none;fill-rule:evenodd;stroke:#000000;stroke-width:0.453;stroke-linecap:butt;stroke-linejoin:miter;stroke-opacity:1;stroke-miterlimit:4;stroke-dasharray:none"
       d="m 63.307274,77.06363 -0.0234,5.02976 c 0,0 -0.56059,2.31306 -1.75934,2.36581 -1.24262,0.0547 -3.1894,-2.50612 -3.27198,0.82733 -0.0826,3.33347 1.26476,3.56049 1.98104,3.47012 0.71629,-0.0904 3.09912,-1.13749 3.08821,4.55831 -0.0344,1.78989 -0.0126,4.69239 -0.0126,4.69239"
       id="path951" />
    <path
       inkscape:connector-curvature="0"
       sodipodi:nodetypes="ccszzcc"
       style="fill:none;fill-rule:evenodd;stroke:#000000;stroke-width:0.45300001;stroke-linecap:butt;stroke-linejoin:miter;stroke-miterlimit:4;stroke-dasharray:none;stroke-opacity:1"
       d="m 84.250994,56.117329 -0.0234,5.02976 c 0,0 0.02674,5.037982 -3.307813,2.703666 -1.730728,-1.211577 -4.497984,-0.439095 -4.623365,2.009793 -0.125381,2.448889 3.085069,3.487851 4.289666,2.428417 1.204597,-1.059434 3.690352,-1.616106 3.679442,4.07969 -0.0344,1.789888 -0.0126,4.692388 -0.0126,4.692388"
       id="path836" />
    <path
       sodipodi:nodetypes="ccszzcc"
       style="fill:none;fill-rule:evenodd;stroke:#000000;stroke-width:0.45300001;stroke-linecap:butt;stroke-linejoin:miter;stroke-miterlimit:4;stroke-dasharray:none;stroke-opacity:1"
       d="m 105.1909,35.17613 -0.0234,5.02976 c 0,0 -0.72203,2.968935 -1.75935,2.36582 -1.5523,-0.902531 -4.872933,-1.972237 -4.764125,1.869023 0.108808,3.84126 2.404505,1.739702 3.890055,1.509455 1.48555,-0.230247 2.68226,-0.218528 2.67135,5.477272 -0.0344,1.78989 -0.0126,4.69239 -0.0126,4.69239"
       id="path838"
       inkscape:connector-curvature="0" />
    <path
       inkscape:connector-curvature="0"
       sodipodi:nodetypes="ccszzcc"
       style="fill:none;fill-rule:evenodd;stroke:#000000;stroke-width:0.45300001;stroke-linecap:butt;stroke-linejoin:miter;stroke-miterlimit:4;stroke-dasharray:none;stroke-opacity:1"
       d="m 105.1909,35.17613 5.02976,0.0234 c 0,0 1.23434,-0.216807 2.36581,1.75934 0.91902,1.605084 -0.56951,3.395807 0.97844,4.253188 1.54795,0.857381 3.35535,-1.319036 2.62423,-3.280598 -0.73112,-1.961562 -0.44272,-2.78077 5.25308,-2.76987 1.7899,0.0344 4.6924,0.0126 4.6924,0.0126"
       id="path842" />
    <path
       inkscape:connector-curvature="0"
       sodipodi:nodetypes="ccszzcc"
       style="fill:none;fill-rule:evenodd;stroke:#000000;stroke-width:0.45300001;stroke-linecap:butt;stroke-linejoin:miter;stroke-miterlimit:4;stroke-dasharray:none;stroke-opacity:1"
       d="m 105.19476,77.06363 5.02976,-0.0234 c 0,0 4.52635,-0.02443 2.7379,-2.480397 -0.75928,-1.042678 -0.6165,-4.650135 1.83239,-4.504931 2.44889,0.145204 3.00804,2.095149 2.48353,3.890977 -0.52451,1.795828 -3.67681,3.159108 4.16775,3.132281 1.78989,-0.0344 4.69239,-0.0126 4.69239,-0.0126"
       id="path844" />
    <path
       id="path846"
       d="m 63.307274,77.063614 -0.0234,-5.02976 c 0,0 0.02674,-5.037982 -3.307813,-2.703666 -1.730728,1.211577 -4.441676,1.649713 -4.623365,-2.009793 -0.181689,-3.659506 3.085069,-3.487851 4.289666,-2.428417 1.204597,1.059434 3.690352,1.616106 3.679442,-4.07969 -0.0344,-1.789888 -0.0126,-4.692388 -0.0126,-4.692388"
       style="fill:none;fill-rule:evenodd;stroke:#000000;stroke-width:0.45300001;stroke-linecap:butt;stroke-linejoin:miter;stroke-miterlimit:4;stroke-dasharray:none;stroke-opacity:1"
       sodipodi:nodetypes="ccszzcc"
       inkscape:connector-curvature="0" />
    <path
       inkscape:connector-curvature="0"
       sodipodi:nodetypes="ccszzcc"
       style="fill:none;fill-rule:evenodd;stroke:#000000;stroke-width:0.45300001;stroke-linecap:butt;stroke-linejoin:miter;stroke-miterlimit:4;stroke-dasharray:none;stroke-opacity:1"
       d="m 126.13848,77.06556 0.0234,-5.02976 c 0,0 -0.0267,-5.037982 3.30781,-2.703666 1.73073,1.211577 4.44168,1.649713 4.62337,-2.009793 0.18169,-3.659506 -3.08507,-3.487851 -4.28967,-2.428417 -1.20459,1.059434 -3.69035,1.616106 -3.67944,-4.07969 0.0344,-1.789888 0.0126,-4.692388 0.0126,-4.692388"
       id="path848" />
    <path
       inkscape:connector-curvature="0"
       sodipodi:nodetypes="ccszzcc"
       style="fill:none;fill-rule:evenodd;stroke:#000000;stroke-width:0.45300001;stroke-linecap:butt;stroke-linejoin:miter;stroke-miterlimit:4;stroke-dasharray:none;stroke-opacity:1"
       d="m 105.19283,56.119916 5.02976,-0.0234 c 0,0 3.95592,-0.612004 2.9289,-2.209812 -1.19642,-1.861358 -0.96232,-4.791222 1.50302,-4.707828 2.46534,0.08339 3.45649,1.399044 2.28765,3.839206 -1.16885,2.440162 -1.1938,3.127274 4.502,3.116364 1.78989,-0.0344 4.69239,-0.0126 4.69239,-0.0126"
       id="path852" />
    <path
       inkscape:connector-curvature="0"
       sodipodi:nodetypes="ccszzcc"
       style="fill:none;fill-rule:evenodd;stroke:#000000;stroke-width:0.45300001;stroke-linecap:butt;stroke-linejoin:miter;stroke-miterlimit:4;stroke-dasharray:none;stroke-opacity:1"
       d="m 126.13462,35.178116 -0.0234,5.02976 c 0,0 0.20496,4.273787 -3.11072,3.266734 -2.22412,-0.675516 -4.32906,-1.959395 -4.70783,1.531187 -0.37877,3.490582 2.24363,3.412899 3.8955,2.146868 1.65187,-1.266032 3.97189,-1.419019 3.96098,4.276771 -0.0344,1.78991 -0.0126,4.69241 -0.0126,4.69241"
       id="path854" />
    <path
       id="path856"
       d="m 84.24528,98.00927 5.02976,0.0234 c 0,0 4.27379,-0.20496 3.26674,3.11072 -0.67552,2.22412 -1.9594,4.32906 1.53119,4.70783 3.49058,0.37877 3.41289,-2.24363 2.14686,-3.8955 -1.26603,-1.65187 -1.41902,-3.97189 4.27677,-3.96098 1.78991,0.0344 4.69241,0.0126 4.69241,0.0126"
       style="fill:none;fill-rule:evenodd;stroke:#000000;stroke-width:0.45300001;stroke-linecap:butt;stroke-linejoin:miter;stroke-miterlimit:4;stroke-dasharray:none;stroke-opacity:1"
       sodipodi:nodetypes="ccszzcc"
       inkscape:connector-curvature="0" />
    <path
       id="path858"
       d="m 126.13725,98.00735 -5.02976,-0.0234 c 0,0 -5.03798,0.02674 -2.70366,-3.307813 1.21157,-1.730728 0.43909,-4.497984 -2.0098,-4.623365 -2.44888,-0.125381 -3.48785,3.085069 -2.42841,4.289666 1.05943,1.204597 1.6161,3.690352 -4.07969,3.679442 -1.78989,-0.0344 -4.69239,-0.0126 -4.69239,-0.0126"
       style="fill:none;fill-rule:evenodd;stroke:#000000;stroke-width:0.45300001;stroke-linecap:butt;stroke-linejoin:miter;stroke-miterlimit:4;stroke-dasharray:none;stroke-opacity:1"
       sodipodi:nodetypes="ccszzcc"
       inkscape:connector-curvature="0" />
    <path
       id="path860"
       d="m 84.249114,56.12179 0.0234,-5.02976 c 0,0 0.02443,-4.52635 2.480397,-2.7379 1.042678,0.75928 4.650135,0.6165 4.504931,-1.83239 -0.145204,-2.44889 -2.095149,-3.00804 -3.890977,-2.48353 -1.795828,0.52451 -3.159108,3.67681 -3.132281,-4.16775 0.0344,-1.78989 0.0126,-4.69239 0.0126,-4.69239"
       style="fill:none;fill-rule:evenodd;stroke:#000000;stroke-width:0.45300001;stroke-linecap:butt;stroke-linejoin:miter;stroke-miterlimit:4;stroke-dasharray:none;stroke-opacity:1"
       sodipodi:nodetypes="ccszzcc"
       inkscape:connector-curvature="0" />
    <path
       inkscape:connector-curvature="0"
       sodipodi:nodetypes="ccszzcc"
       style="fill:none;fill-rule:evenodd;stroke:#000000;stroke-width:0.45300001;stroke-linecap:butt;stroke-linejoin:miter;stroke-miterlimit:4;stroke-dasharray:none;stroke-opacity:1"
       d="m 84.250994,35.1743 -5.02976,-0.0234 c 0,0 -5.03798,0.02674 -2.70366,-3.307813 1.21157,-1.730728 0.651797,-3.221741 -1.797093,-3.347122 -2.44888,-0.125381 -3.700557,1.808826 -2.641117,3.013423 1.05943,1.204597 1.6161,3.690352 -4.07969,3.679442 -1.78989,-0.0344 -4.69239,-0.0126 -4.69239,-0.0126"
       id="path862" />
    <path
       id="path864"
       d="m 105.1909,35.17614 -5.02976,-0.0234 c 0,0 -5.037986,0.0267 -2.703666,-3.30781 1.21158,-1.73073 1.64971,-4.44168 -2.00979,-4.62337 -3.65951,-0.18169 -3.48785,3.08507 -2.42842,4.28967 1.05943,1.20459 1.61611,3.69035 -4.07969,3.67944 -1.78989,-0.0344 -4.69239,-0.0126 -4.69239,-0.0126"
       style="fill:none;fill-rule:evenodd;stroke:#000000;stroke-width:0.45300001;stroke-linecap:butt;stroke-linejoin:miter;stroke-miterlimit:4;stroke-dasharray:none;stroke-opacity:1"
       sodipodi:nodetypes="ccszzcc"
       inkscape:connector-curvature="0" />
    <path
       inkscape:connector-curvature="0"
       id="path866"
       d="m 105.19289,98.00735 0.0234,-5.02976 c 0,0 0.72203,-2.96894 1.75935,-2.36582 1.5523,0.90253 4.87293,1.97224 4.76412,-1.86902 -0.1088,-3.841264 -2.4045,-1.73971 -3.89005,-1.50946 -1.48555,0.23025 -2.68226,0.21853 -2.67135,-5.477271 0.0344,-1.78989 0.0126,-4.69239 0.0126,-4.69239"
       style="fill:none;fill-rule:evenodd;stroke:#000000;stroke-width:0.45300001;stroke-linecap:butt;stroke-linejoin:miter;stroke-miterlimit:4;stroke-dasharray:none;stroke-opacity:1"
       sodipodi:nodetypes="ccszzcc" />
    <path
       sodipodi:nodetypes="ccszzcc"
       style="fill:none;fill-rule:evenodd;stroke:#000000;stroke-width:0.45300001;stroke-linecap:butt;stroke-linejoin:miter;stroke-miterlimit:4;stroke-dasharray:none;stroke-opacity:1"
       d="m 84.252924,98.005411 0.0234,-5.02976 c 0,0 -0.335934,-5.987355 3.035592,-5.237366 2.769227,0.61601 4.068156,2.075211 3.913292,-2.400788 -0.154864,-4.476 -3.361682,-2.165124 -4.847232,-1.934874 -1.48555,0.23025 -2.150492,1.70748 -2.139582,-3.988321 0.0344,-1.78989 0.0126,-2.352612 0.0126,-2.352612"
       id="path868"
       inkscape:connector-curvature="0" />
    <path
       inkscape:connector-curvature="0"
       sodipodi:nodetypes="ccszzcc"
       style="fill:none;fill-rule:evenodd;stroke:#000000;stroke-width:0.45300001;stroke-linecap:butt;stroke-linejoin:miter;stroke-miterlimit:4;stroke-dasharray:none;stroke-opacity:1"
       d="m 84.252934,98.00541 -5.02976,-0.0234 c 0,0 -3.143743,-0.432712 -2.810291,-2.417919 0.388362,-2.312119 1.67296,-4.382745 -1.137024,-5.214598 -2.809983,-0.831852 -4.688042,2.560109 -3.447946,3.87839 1.240097,1.318281 1.869491,3.802967 -3.826309,3.792067 -1.7899,-0.0344 -4.6924,-0.0126 -4.6924,-0.0126"
       id="path870" />
    <path
       inkscape:connector-curvature="0"
       sodipodi:nodetypes="ccszzcc"
       style="fill:none;fill-rule:evenodd;stroke:#000000;stroke-width:0.45300001;stroke-linecap:butt;stroke-linejoin:miter;stroke-miterlimit:4;stroke-dasharray:none;stroke-opacity:1"
       d="m 63.307274,77.063614 5.02976,0.0234 c 0,0 4.27379,-0.20496 3.26674,3.11072 -0.67552,2.22412 -1.9594,4.32906 1.53119,4.70783 3.49058,0.37877 3.41289,-2.24363 2.14686,-3.8955 -1.26603,-1.65187 -1.41902,-3.97189 4.27677,-3.96098 1.78991,0.0344 4.69241,0.0126 4.69241,0.0126"
       id="path872" />
    <path
       inkscape:connector-curvature="0"
       sodipodi:nodetypes="ccszzcc"
       style="fill:none;fill-rule:evenodd;stroke:#000000;stroke-width:0.45300001;stroke-linecap:butt;stroke-linejoin:miter;stroke-miterlimit:4;stroke-dasharray:none;stroke-opacity:1"
       d="m 63.309154,56.1199 0.0234,-5.029756 c 0,0 -0.0267,-5.03798 3.30782,-2.70366 1.73072,1.21157 4.49798,0.43909 4.62336,-2.0098 0.12538,-2.44888 -3.08507,-3.48785 -4.28966,-2.42841 -1.2046,1.05943 -3.69036,1.6161 -3.67945,-4.07969 0.0344,-1.78989 0.0126,-4.69239 0.0126,-4.69239"
       id="path874" />
    <path
       id="path876"
       d="m 126.13532,77.063636 -0.0234,5.02976 c 0,0 0.0267,5.037982 -3.30781,2.703666 -1.73073,-1.211577 -4.49799,-0.439095 -4.62337,2.009793 -0.12538,2.448889 3.08507,3.487851 4.28967,2.428417 1.2046,-1.059434 3.69035,-1.616106 3.67944,4.07969 -0.0344,1.789888 -0.0126,4.692388 -0.0126,4.692388"
       style="fill:none;fill-rule:evenodd;stroke:#000000;stroke-width:0.45300001;stroke-linecap:butt;stroke-linejoin:miter;stroke-miterlimit:4;stroke-dasharray:none;stroke-opacity:1"
       sodipodi:nodetypes="ccszzcc"
       inkscape:connector-curvature="0" />
  </g>
</svg>
