<?xml version="1.0" encoding="UTF-8" standalone="no"?>
<!-- Created with Inkscape (http://www.inkscape.org/) -->

<svg
   xmlns:dc="http://purl.org/dc/elements/1.1/"
   xmlns:cc="http://creativecommons.org/ns#"
   xmlns:rdf="http://www.w3.org/1999/02/22-rdf-syntax-ns#"
   xmlns:svg="http://www.w3.org/2000/svg"
   xmlns="http://www.w3.org/2000/svg"
   xmlns:sodipodi="http://sodipodi.sourceforge.net/DTD/sodipodi-0.dtd"
   xmlns:inkscape="http://www.inkscape.org/namespaces/inkscape"
   width="210mm"
   height="297mm"
   viewBox="0 0 210 297"
   version="1.1"
   id="svg8"
   inkscape:version="0.92.4 (unknown)"
   sodipodi:docname="tree_in_memory.svg">
  <defs
     id="defs2">
    <marker
       inkscape:stockid="Arrow1Lend"
       orient="auto"
       refY="0.0"
       refX="0.0"
       id="marker1170"
       style="overflow:visible;"
       inkscape:isstock="true">
      <path
         id="path1168"
         d="M 0.0,0.0 L 5.0,-5.0 L -12.5,0.0 L 5.0,5.0 L 0.0,0.0 z "
         style="fill-rule:evenodd;stroke:#000000;stroke-width:1pt;stroke-opacity:1;fill:#000000;fill-opacity:1"
         transform="scale(0.8) rotate(180) translate(12.5,0)" />
    </marker>
    <marker
       inkscape:isstock="true"
       style="overflow:visible;"
       id="marker1134"
       refX="0.0"
       refY="0.0"
       orient="auto"
       inkscape:stockid="Arrow1Lend"
       inkscape:collect="always">
      <path
         transform="scale(0.8) rotate(180) translate(12.5,0)"
         style="fill-rule:evenodd;stroke:#000000;stroke-width:1pt;stroke-opacity:1;fill:#000000;fill-opacity:1"
         d="M 0.0,0.0 L 5.0,-5.0 L -12.5,0.0 L 5.0,5.0 L 0.0,0.0 z "
         id="path1132" />
    </marker>
    <marker
       inkscape:stockid="Arrow1Lend"
       orient="auto"
       refY="0.0"
       refX="0.0"
       id="Arrow1Lend"
       style="overflow:visible;"
       inkscape:isstock="true"
       inkscape:collect="always">
      <path
         id="path851"
         d="M 0.0,0.0 L 5.0,-5.0 L -12.5,0.0 L 5.0,5.0 L 0.0,0.0 z "
         style="fill-rule:evenodd;stroke:#000000;stroke-width:1pt;stroke-opacity:1;fill:#000000;fill-opacity:1"
         transform="scale(0.8) rotate(180) translate(12.5,0)" />
    </marker>
  </defs>
  <sodipodi:namedview
     id="base"
     pagecolor="#ffffff"
     bordercolor="#666666"
     borderopacity="1.0"
     inkscape:pageopacity="0.0"
     inkscape:pageshadow="2"
     inkscape:zoom="0.66279461"
     inkscape:cx="396.85039"
     inkscape:cy="621.61036"
     inkscape:document-units="mm"
     inkscape:current-layer="layer1"
     showgrid="false"
     inkscape:window-width="1920"
     inkscape:window-height="1044"
     inkscape:window-x="1920"
     inkscape:window-y="0"
     inkscape:window-maximized="1" />
  <metadata
     id="metadata5">
    <rdf:RDF>
      <cc:Work
         rdf:about="">
        <dc:format>image/svg+xml</dc:format>
        <dc:type
           rdf:resource="http://purl.org/dc/dcmitype/StillImage" />
        <dc:title></dc:title>
      </cc:Work>
    </rdf:RDF>
  </metadata>
  <g
     inkscape:label="Layer 1"
     inkscape:groupmode="layer"
     id="layer1">
    <g
       id="g1570"
       transform="translate(4.2503728,81.500167)">
      <g
         transform="translate(121.75402,-22.354839)"
         id="g836">
        <rect
           y="47.903225"
           x="13.173389"
           height="9.5806446"
           width="13.57258"
           id="rect827"
           style="opacity:1;fill:#ff0000;fill-opacity:1;stroke:#000088;stroke-width:0.26458332;stroke-miterlimit:4;stroke-dasharray:0.79374994, 0.79374994;stroke-dashoffset:0;stroke-opacity:1" />
        <rect
           style="opacity:1;fill:#ffffff;fill-opacity:1;stroke:#000000;stroke-width:0.26458332;stroke-miterlimit:4;stroke-dasharray:0.79374994, 0.79374994;stroke-dashoffset:0;stroke-opacity:1"
           id="rect829"
           width="13.57258"
           height="9.5806446"
           x="40.31855"
           y="47.903225" />
        <rect
           y="47.903225"
           x="26.74597"
           height="9.5806446"
           width="13.57258"
           id="rect831"
           style="opacity:1;fill:#ffffff;fill-opacity:1;stroke:#000000;stroke-width:0.26458332;stroke-miterlimit:4;stroke-dasharray:0.79374994, 0.79374994;stroke-dashoffset:0;stroke-opacity:1" />
      </g>
      <g
         id="g844"
         transform="translate(40.318546,-22.354839)">
        <rect
           style="opacity:1;fill:#ff0000;fill-opacity:1;stroke:#000088;stroke-width:0.26458332;stroke-miterlimit:4;stroke-dasharray:0.79374994, 0.79374994;stroke-dashoffset:0;stroke-opacity:1"
           id="rect838"
           width="13.57258"
           height="9.5806446"
           x="13.173389"
           y="47.903225" />
        <rect
           y="47.903225"
           x="40.31855"
           height="9.5806446"
           width="13.57258"
           id="rect840"
           style="opacity:1;fill:#ffffff;fill-opacity:1;stroke:#000000;stroke-width:0.26458332;stroke-miterlimit:4;stroke-dasharray:0.79374994, 0.79374994;stroke-dashoffset:0;stroke-opacity:1" />
        <rect
           style="opacity:1;fill:#ffffff;fill-opacity:1;stroke:#000000;stroke-width:0.26458332;stroke-miterlimit:4;stroke-dasharray:0.79374994, 0.79374994;stroke-dashoffset:0;stroke-opacity:1"
           id="rect842"
           width="13.57258"
           height="9.5806446"
           x="26.74597"
           y="47.903225" />
      </g>
      <g
         id="g1382">
        <rect
           style="opacity:1;fill:#000080;fill-opacity:1;stroke:#000088;stroke-width:0.26458332;stroke-miterlimit:4;stroke-dasharray:0.79374994, 0.79374994;stroke-dashoffset:0;stroke-opacity:1"
           id="rect815"
           width="13.57258"
           height="9.5806446"
           x="12.774194"
           y="25.548388" />
        <rect
           y="25.548388"
           x="26.346775"
           height="9.5806446"
           width="13.57258"
           id="rect823"
           style="opacity:1;fill:#ffffff;fill-opacity:1;stroke:#000088;stroke-width:0.26458332;stroke-miterlimit:4;stroke-dasharray:0.79374994, 0.79374994;stroke-dashoffset:0;stroke-opacity:1" />
        <rect
           style="opacity:1;fill:#ffffff;fill-opacity:1;stroke:#000088;stroke-width:0.26458332;stroke-miterlimit:4;stroke-dasharray:0.79374994, 0.79374994;stroke-dashoffset:0;stroke-opacity:1"
           id="rect825"
           width="13.57258"
           height="9.5806446"
           x="39.919357"
           y="25.548388" />
        <path
           style="fill:none;stroke:#000000;stroke-width:0.26499999;stroke-linecap:butt;stroke-linejoin:miter;stroke-miterlimit:4;stroke-dasharray:none;stroke-opacity:1;marker-end:url(#Arrow1Lend)"
           d="m 28.91374,33.573989 8.191125,-6.1665"
           id="path846"
           inkscape:connector-curvature="0" />
        <path
           inkscape:connector-curvature="0"
           id="path1130"
           d="m 28.91374,33.573989 8.191125,-6.1665"
           style="fill:none;stroke:#000000;stroke-width:0.26499999;stroke-linecap:butt;stroke-linejoin:miter;stroke-miterlimit:4;stroke-dasharray:none;stroke-opacity:1;marker-end:url(#marker1134)" />
        <path
           style="fill:none;stroke:#000000;stroke-width:0.26499999;stroke-linecap:butt;stroke-linejoin:miter;stroke-miterlimit:4;stroke-dasharray:none;stroke-opacity:1;marker-end:url(#marker1170)"
           d="m 42.309001,33.94608 8.191125,-6.1665"
           id="path1166"
           inkscape:connector-curvature="0" />
      </g>
      <g
         transform="translate(81.435474,-1.5823974e-6)"
         id="g1396">
        <rect
           y="25.548388"
           x="12.774194"
           height="9.5806446"
           width="13.57258"
           id="rect1384"
           style="opacity:1;fill:#000080;fill-opacity:1;stroke:#000088;stroke-width:0.26458332;stroke-miterlimit:4;stroke-dasharray:0.79374994, 0.79374994;stroke-dashoffset:0;stroke-opacity:1" />
        <rect
           style="opacity:1;fill:#ffffff;fill-opacity:1;stroke:#000088;stroke-width:0.26458332;stroke-miterlimit:4;stroke-dasharray:0.79374994, 0.79374994;stroke-dashoffset:0;stroke-opacity:1"
           id="rect1386"
           width="13.57258"
           height="9.5806446"
           x="26.346775"
           y="25.548388" />
        <rect
           y="25.548388"
           x="39.919357"
           height="9.5806446"
           width="13.57258"
           id="rect1388"
           style="opacity:1;fill:#ffffff;fill-opacity:1;stroke:#000088;stroke-width:0.26458332;stroke-miterlimit:4;stroke-dasharray:0.79374994, 0.79374994;stroke-dashoffset:0;stroke-opacity:1" />
        <path
           inkscape:connector-curvature="0"
           id="path1390"
           d="m 28.91374,33.573989 8.191125,-6.1665"
           style="fill:none;stroke:#000000;stroke-width:0.26499999;stroke-linecap:butt;stroke-linejoin:miter;stroke-miterlimit:4;stroke-dasharray:none;stroke-opacity:1;marker-end:url(#Arrow1Lend)" />
        <path
           style="fill:none;stroke:#000000;stroke-width:0.26499999;stroke-linecap:butt;stroke-linejoin:miter;stroke-miterlimit:4;stroke-dasharray:none;stroke-opacity:1;marker-end:url(#marker1134)"
           d="m 28.91374,33.573989 8.191125,-6.1665"
           id="path1392"
           inkscape:connector-curvature="0" />
        <path
           inkscape:connector-curvature="0"
           id="path1394"
           d="m 42.309001,33.94608 8.191125,-6.1665"
           style="fill:none;stroke:#000000;stroke-width:0.26499999;stroke-linecap:butt;stroke-linejoin:miter;stroke-miterlimit:4;stroke-dasharray:none;stroke-opacity:1;marker-end:url(#marker1170)" />
      </g>
      <g
         id="g1416"
         transform="translate(-0.39919472,-12.774193)">
        <rect
           style="opacity:1;fill:#ff0000;fill-opacity:1;stroke:#000088;stroke-width:0.26458332;stroke-miterlimit:4;stroke-dasharray:0.79374994, 0.79374994;stroke-dashoffset:0;stroke-opacity:1"
           id="rect1410"
           width="13.57258"
           height="9.5806446"
           x="13.173389"
           y="47.903225" />
        <rect
           y="47.903225"
           x="40.31855"
           height="9.5806446"
           width="13.57258"
           id="rect1412"
           style="opacity:1;fill:#ffffff;fill-opacity:1;stroke:#000000;stroke-width:0.26458332;stroke-miterlimit:4;stroke-dasharray:0.79374994, 0.79374994;stroke-dashoffset:0;stroke-opacity:1" />
        <rect
           style="opacity:1;fill:#ffffff;fill-opacity:1;stroke:#000000;stroke-width:0.26458332;stroke-miterlimit:4;stroke-dasharray:0.79374994, 0.79374994;stroke-dashoffset:0;stroke-opacity:1"
           id="rect1414"
           width="13.57258"
           height="9.5806446"
           x="26.74597"
           y="47.903225" />
      </g>
      <text
         id="text1420"
         y="32.956982"
         x="69.540993"
         style="font-style:normal;font-variant:normal;font-weight:normal;font-stretch:normal;font-size:7.05555534px;line-height:1.25;font-family:sans-serif;-inkscape-font-specification:'sans-serif, Normal';font-variant-ligatures:normal;font-variant-caps:normal;font-variant-numeric:normal;font-feature-settings:normal;text-align:start;letter-spacing:0px;word-spacing:0px;writing-mode:lr-tb;text-anchor:start;fill:#000000;fill-opacity:1;stroke:none;stroke-width:0.26458332"
         xml:space="preserve"><tspan
           style="stroke-width:0.26458332"
           y="32.956982"
           x="69.540993"
           id="tspan1418"
           sodipodi:role="line">42</tspan></text>
      <text
         id="text1424"
         y="32.860519"
         x="150.82487"
         style="font-style:normal;font-variant:normal;font-weight:normal;font-stretch:normal;font-size:7.05555534px;line-height:1.25;font-family:sans-serif;-inkscape-font-specification:'sans-serif, Normal';font-variant-ligatures:normal;font-variant-caps:normal;font-variant-numeric:normal;font-feature-settings:normal;text-align:start;letter-spacing:0px;word-spacing:0px;writing-mode:lr-tb;text-anchor:start;fill:#000000;fill-opacity:1;stroke:none;stroke-width:0.26458332"
         xml:space="preserve"><tspan
           style="stroke-width:0.26458332"
           y="32.860519"
           x="150.82487"
           id="tspan1422"
           sodipodi:role="line">57</tspan></text>
      <text
         id="text1428"
         y="42.487675"
         x="28.692337"
         style="font-style:normal;font-variant:normal;font-weight:normal;font-stretch:normal;font-size:7.05555534px;line-height:1.25;font-family:sans-serif;-inkscape-font-specification:'sans-serif, Normal';font-variant-ligatures:normal;font-variant-caps:normal;font-variant-numeric:normal;font-feature-settings:normal;text-align:start;letter-spacing:0px;word-spacing:0px;writing-mode:lr-tb;text-anchor:start;fill:#000000;fill-opacity:1;stroke:none;stroke-width:0.26458332"
         xml:space="preserve"><tspan
           style="stroke-width:0.26458332"
           y="42.487675"
           x="28.692337"
           id="tspan1426"
           sodipodi:role="line">25</tspan></text>
      <text
         xml:space="preserve"
         style="font-style:normal;font-variant:normal;font-weight:normal;font-stretch:normal;font-size:7.05555534px;line-height:1.25;font-family:sans-serif;-inkscape-font-specification:'sans-serif, Normal';font-variant-ligatures:normal;font-variant-caps:normal;font-variant-numeric:normal;font-feature-settings:normal;text-align:start;letter-spacing:0px;word-spacing:0px;writing-mode:lr-tb;text-anchor:start;fill:#000000;fill-opacity:1;stroke:none;stroke-width:0.26458332"
         x="28.692337"
         y="42.487675"
         id="text1463"><tspan
           sodipodi:role="line"
           id="tspan1461"
           x="28.692337"
           y="42.487675"
           style="stroke-width:0.26458332">25</tspan></text>
    </g>
    <g
       id="g1477"
       transform="translate(-10.896202,-10.851377)">
      <path
         inkscape:connector-curvature="0"
         id="path1449"
         d="M 85.286664,71.634944 98.798651,49.073646 111.69082,71.387019"
         style="fill:none;stroke:#000000;stroke-width:0.26458332px;stroke-linecap:butt;stroke-linejoin:miter;stroke-opacity:1" />
      <path
         style="fill:none;stroke:#000000;stroke-width:0.26458332px;stroke-linecap:butt;stroke-linejoin:miter;stroke-opacity:1"
         d="M 98.178833,93.948317 111.69082,71.387019 124.58299,93.700392"
         id="path1451"
         inkscape:connector-curvature="0" />
      <text
         xml:space="preserve"
         style="font-style:normal;font-variant:normal;font-weight:normal;font-stretch:normal;font-size:7.05555534px;line-height:1.25;font-family:sans-serif;-inkscape-font-specification:'sans-serif, Normal';font-variant-ligatures:normal;font-variant-caps:normal;font-variant-numeric:normal;font-feature-settings:normal;text-align:start;letter-spacing:0px;word-spacing:0px;writing-mode:lr-tb;text-anchor:start;fill:#000000;fill-opacity:1;stroke:none;stroke-width:0.26458332"
         x="80.32579"
         y="80.062988"
         id="text1455"><tspan
           sodipodi:role="line"
           id="tspan1453"
           x="80.32579"
           y="80.062988"
           style="stroke-width:0.26458332">42</tspan></text>
      <text
         xml:space="preserve"
         style="font-style:normal;font-variant:normal;font-weight:normal;font-stretch:normal;font-size:7.05555534px;line-height:1.25;font-family:sans-serif;-inkscape-font-specification:'sans-serif, Normal';font-variant-ligatures:normal;font-variant-caps:normal;font-variant-numeric:normal;font-feature-settings:normal;text-align:start;letter-spacing:0px;word-spacing:0px;writing-mode:lr-tb;text-anchor:start;fill:#000000;fill-opacity:1;stroke:none;stroke-width:0.26458332"
         x="93.305962"
         y="102.21241"
         id="text1459"><tspan
           sodipodi:role="line"
           id="tspan1457"
           x="93.305962"
           y="102.21241"
           style="stroke-width:0.26458332">57</tspan></text>
      <text
         id="text1467"
         y="102.25891"
         x="121.16887"
         style="font-style:normal;font-variant:normal;font-weight:normal;font-stretch:normal;font-size:7.05555534px;line-height:1.25;font-family:sans-serif;-inkscape-font-specification:'sans-serif, Normal';font-variant-ligatures:normal;font-variant-caps:normal;font-variant-numeric:normal;font-feature-settings:normal;text-align:start;letter-spacing:0px;word-spacing:0px;writing-mode:lr-tb;text-anchor:start;fill:#000000;fill-opacity:1;stroke:none;stroke-width:0.26458332"
         xml:space="preserve"><tspan
           style="stroke-width:0.26458332"
           y="102.25891"
           x="121.16887"
           id="tspan1465"
           sodipodi:role="line">25</tspan></text>
    </g>
  </g>
</svg>
